﻿NAME,URL
Bact531R,http://probebase.csb.univie.ac.at/pb_report/probe/3704
bact363F,http://probebase.csb.univie.ac.at/pb_report/probe/3705
R357,http://probebase.csb.univie.ac.at/pb_report/probe/3706
Uni1392R,http://probebase.csb.univie.ac.at/pb_report/probe/3707
27F,http://probebase.csb.univie.ac.at/pb_report/probe/3708
UA1406R,http://probebase.csb.univie.ac.at/pb_report/probe/3709
Bac927R,http://probebase.csb.univie.ac.at/pb_report/probe/3710
1492R,http://probebase.csb.univie.ac.at/pb_report/probe/3711
Arch20F,http://probebase.csb.univie.ac.at/pb_report/probe/3712
Primer 3,http://probebase.csb.univie.ac.at/pb_report/probe/3713
518F,http://probebase.csb.univie.ac.at/pb_report/probe/3714
Primer 2,http://probebase.csb.univie.ac.at/pb_report/probe/3715
518R,http://probebase.csb.univie.ac.at/pb_report/probe/3716
GM3F,http://probebase.csb.univie.ac.at/pb_report/probe/3717
907R,http://probebase.csb.univie.ac.at/pb_report/probe/3718
GM4R,http://probebase.csb.univie.ac.at/pb_report/probe/3719
343F,http://probebase.csb.univie.ac.at/pb_report/probe/3720
347F,http://probebase.csb.univie.ac.at/pb_report/probe/3721
784F,http://probebase.csb.univie.ac.at/pb_report/probe/3722
917F,http://probebase.csb.univie.ac.at/pb_report/probe/3723
1099F,http://probebase.csb.univie.ac.at/pb_report/probe/3724
534R,http://probebase.csb.univie.ac.at/pb_report/probe/3725
798R,http://probebase.csb.univie.ac.at/pb_report/probe/3726
803R,http://probebase.csb.univie.ac.at/pb_report/probe/3727
1114R,http://probebase.csb.univie.ac.at/pb_report/probe/3728
1407R,http://probebase.csb.univie.ac.at/pb_report/probe/3729
968F,http://probebase.csb.univie.ac.at/pb_report/probe/3730
1401R,http://probebase.csb.univie.ac.at/pb_report/probe/3731
Pra46F,http://probebase.csb.univie.ac.at/pb_report/probe/3732
Parch340F,http://probebase.csb.univie.ac.at/pb_report/probe/3733
Parch519R,http://probebase.csb.univie.ac.at/pb_report/probe/3734
967F,http://probebase.csb.univie.ac.at/pb_report/probe/3735
1046R,http://probebase.csb.univie.ac.at/pb_report/probe/3736
U341F,http://probebase.csb.univie.ac.at/pb_report/probe/3737
U751F,http://probebase.csb.univie.ac.at/pb_report/probe/3738
Ab789F,http://probebase.csb.univie.ac.at/pb_report/probe/3739
Ab906F,http://probebase.csb.univie.ac.at/pb_report/probe/3740
U1053F,http://probebase.csb.univie.ac.at/pb_report/probe/3741
Ab779F,http://probebase.csb.univie.ac.at/pb_report/probe/3742
U529R,http://probebase.csb.univie.ac.at/pb_report/probe/3743
UA1406R,http://probebase.csb.univie.ac.at/pb_report/probe/3744
U1510R,http://probebase.csb.univie.ac.at/pb_report/probe/3745
Arch915R,http://probebase.csb.univie.ac.at/pb_report/probe/3746
Arch349F,http://probebase.csb.univie.ac.at/pb_report/probe/3747
Arch516F,http://probebase.csb.univie.ac.at/pb_report/probe/3748
Arch8F,http://probebase.csb.univie.ac.at/pb_report/probe/3749
Arch1492R,http://probebase.csb.univie.ac.at/pb_report/probe/3750
U515F,http://probebase.csb.univie.ac.at/pb_report/probe/3751
806R,http://probebase.csb.univie.ac.at/pb_report/probe/3752
U519F,http://probebase.csb.univie.ac.at/pb_report/probe/3753
U779F,http://probebase.csb.univie.ac.at/pb_report/probe/3754
A519F,http://probebase.csb.univie.ac.at/pb_report/probe/3755
517F,http://probebase.csb.univie.ac.at/pb_report/probe/3756
A519R,http://probebase.csb.univie.ac.at/pb_report/probe/3757
A806R,http://probebase.csb.univie.ac.at/pb_report/probe/3758
E806R,http://probebase.csb.univie.ac.at/pb_report/probe/3759
Uni1390R,http://probebase.csb.univie.ac.at/pb_report/probe/3760
1492Rc,http://probebase.csb.univie.ac.at/pb_report/probe/3761
B1055f (Bergen),http://probebase.csb.univie.ac.at/pb_report/probe/3762
Uni522R,http://probebase.csb.univie.ac.at/pb_report/probe/3763
784F,http://probebase.csb.univie.ac.at/pb_report/probe/3764
1061R,http://probebase.csb.univie.ac.at/pb_report/probe/3765
Arch_344F,http://probebase.csb.univie.ac.at/pb_report/probe/3766
Arch855R,http://probebase.csb.univie.ac.at/pb_report/probe/3767
Arch1017R,http://probebase.csb.univie.ac.at/pb_report/probe/3768
8F,http://probebase.csb.univie.ac.at/pb_report/probe/3769
909F,http://probebase.csb.univie.ac.at/pb_report/probe/3770
1492R,http://probebase.csb.univie.ac.at/pb_report/probe/3771
520F,http://probebase.csb.univie.ac.at/pb_report/probe/3772
986F,http://probebase.csb.univie.ac.at/pb_report/probe/3773
802R,http://probebase.csb.univie.ac.at/pb_report/probe/3774
1027R,http://probebase.csb.univie.ac.at/pb_report/probe/3775
967F,http://probebase.csb.univie.ac.at/pb_report/probe/3776
1046R,http://probebase.csb.univie.ac.at/pb_report/probe/3777
1391R,http://probebase.csb.univie.ac.at/pb_report/probe/3778
530F,http://probebase.csb.univie.ac.at/pb_report/probe/3779
1100R,http://probebase.csb.univie.ac.at/pb_report/probe/3780
pH,http://probebase.csb.univie.ac.at/pb_report/probe/3781
338,http://probebase.csb.univie.ac.at/pb_report/probe/3782
6F,http://probebase.csb.univie.ac.at/pb_report/probe/3783
27F,http://probebase.csb.univie.ac.at/pb_report/probe/3784
39F,http://probebase.csb.univie.ac.at/pb_report/probe/3785
41F,http://probebase.csb.univie.ac.at/pb_report/probe/3786
63F,http://probebase.csb.univie.ac.at/pb_report/probe/3787
64F,http://probebase.csb.univie.ac.at/pb_report/probe/3788
533F,http://probebase.csb.univie.ac.at/pb_report/probe/3789
908R,http://probebase.csb.univie.ac.at/pb_report/probe/3790
8aF,http://probebase.csb.univie.ac.at/pb_report/probe/3791
9bF,http://probebase.csb.univie.ac.at/pb_report/probe/3792
8mcF,http://probebase.csb.univie.ac.at/pb_report/probe/3793
217kF,http://probebase.csb.univie.ac.at/pb_report/probe/3794
519mcF,http://probebase.csb.univie.ac.at/pb_report/probe/3795
1114aR,http://probebase.csb.univie.ac.at/pb_report/probe/3796
515mcR,http://probebase.csb.univie.ac.at/pb_report/probe/3797
511mcR,http://probebase.csb.univie.ac.at/pb_report/probe/3798
934mcR,http://probebase.csb.univie.ac.at/pb_report/probe/3799
1114mcR,http://probebase.csb.univie.ac.at/pb_report/probe/3800
1406mcR,http://probebase.csb.univie.ac.at/pb_report/probe/3801
1513mcR,http://probebase.csb.univie.ac.at/pb_report/probe/3802
533R,http://probebase.csb.univie.ac.at/pb_report/probe/3803
917F,http://probebase.csb.univie.ac.at/pb_report/probe/3804
970F,http://probebase.csb.univie.ac.at/pb_report/probe/3805
1050R,http://probebase.csb.univie.ac.at/pb_report/probe/3806
1061R,http://probebase.csb.univie.ac.at/pb_report/probe/3807
b341F,http://probebase.csb.univie.ac.at/pb_report/probe/3808
b785,http://probebase.csb.univie.ac.at/pb_report/probe/3809
630R,http://probebase.csb.univie.ac.at/pb_report/probe/3810
909F,http://probebase.csb.univie.ac.at/pb_report/probe/3811
917Fw,http://probebase.csb.univie.ac.at/pb_report/probe/3812
1061Rv,http://probebase.csb.univie.ac.at/pb_report/probe/3813
"8f, 616V",http://probebase.csb.univie.ac.at/pb_report/probe/3814
A21f,http://probebase.csb.univie.ac.at/pb_report/probe/3815
Ar9r,http://probebase.csb.univie.ac.at/pb_report/probe/3816
27F,http://probebase.csb.univie.ac.at/pb_report/probe/3817
518R,http://probebase.csb.univie.ac.at/pb_report/probe/3818
527f,http://probebase.csb.univie.ac.at/pb_report/probe/3819
536r,http://probebase.csb.univie.ac.at/pb_report/probe/3820
926r,http://probebase.csb.univie.ac.at/pb_report/probe/3821
P609D,http://probebase.csb.univie.ac.at/pb_report/probe/3822
68F,http://probebase.csb.univie.ac.at/pb_report/probe/3823
1492R,http://probebase.csb.univie.ac.at/pb_report/probe/3824
P63F,http://probebase.csb.univie.ac.at/pb_report/probe/3825
P338f,http://probebase.csb.univie.ac.at/pb_report/probe/3826
P518r,http://probebase.csb.univie.ac.at/pb_report/probe/3827
Bact340F,http://probebase.csb.univie.ac.at/pb_report/probe/3828
Bact806R,http://probebase.csb.univie.ac.at/pb_report/probe/3829
Arch934F,http://probebase.csb.univie.ac.at/pb_report/probe/3830
Arch344F,http://probebase.csb.univie.ac.at/pb_report/probe/3831
A2F,http://probebase.csb.univie.ac.at/pb_report/probe/3832
A333F,http://probebase.csb.univie.ac.at/pb_report/probe/3833
A16F,http://probebase.csb.univie.ac.at/pb_report/probe/3834
U1517R,http://probebase.csb.univie.ac.at/pb_report/probe/3835
1391R,http://probebase.csb.univie.ac.at/pb_report/probe/3836
A109f,http://probebase.csb.univie.ac.at/pb_report/probe/3837
A934b,http://probebase.csb.univie.ac.at/pb_report/probe/3838
A329,http://probebase.csb.univie.ac.at/pb_report/probe/3839
A693r,http://probebase.csb.univie.ac.at/pb_report/probe/3840
Arch958R,http://probebase.csb.univie.ac.at/pb_report/probe/3841
805R,http://probebase.csb.univie.ac.at/pb_report/probe/3842
"8F, pA",http://probebase.csb.univie.ac.at/pb_report/probe/3843
Bakt_341F,http://probebase.csb.univie.ac.at/pb_report/probe/3844
Bakt_805R,http://probebase.csb.univie.ac.at/pb_report/probe/3845
bio-pBR5apos.SEF,http://probebase.csb.univie.ac.at/pb_report/probe/3846
bio-pJBS-V3.SEF,http://probebase.csb.univie.ac.at/pb_report/probe/3847
pBR-V1.ASR,http://probebase.csb.univie.ac.at/pb_report/probe/3848
B-V3.ASR,http://probebase.csb.univie.ac.at/pb_report/probe/3849
GM12R,http://probebase.csb.univie.ac.at/pb_report/probe/3850
Arch958BF,http://probebase.csb.univie.ac.at/pb_report/probe/3851
Arch958BF,http://probebase.csb.univie.ac.at/pb_report/probe/3852
Arch958VR,http://probebase.csb.univie.ac.at/pb_report/probe/3853
Arch9Fa,http://probebase.csb.univie.ac.at/pb_report/probe/3854
Arch9Fb,http://probebase.csb.univie.ac.at/pb_report/probe/3855
Arch9Fab,http://probebase.csb.univie.ac.at/pb_report/probe/3856
A8f (Bergen),http://probebase.csb.univie.ac.at/pb_report/probe/3857
Arch958F,http://probebase.csb.univie.ac.at/pb_report/probe/3858
Bac967Fb,http://probebase.csb.univie.ac.at/pb_report/probe/3859
Bac967Fc,http://probebase.csb.univie.ac.at/pb_report/probe/3860
Bac967Fd,http://probebase.csb.univie.ac.at/pb_report/probe/3861
Bac967Fe,http://probebase.csb.univie.ac.at/pb_report/probe/3862
Arch1048R,http://probebase.csb.univie.ac.at/pb_report/probe/3863
Bac1046Rb,http://probebase.csb.univie.ac.at/pb_report/probe/3864
Bac1046Rc,http://probebase.csb.univie.ac.at/pb_report/probe/3865
Bac1046Rd,http://probebase.csb.univie.ac.at/pb_report/probe/3866
P699D,http://probebase.csb.univie.ac.at/pb_report/probe/3867
A616D,http://probebase.csb.univie.ac.at/pb_report/probe/3868
P699R,http://probebase.csb.univie.ac.at/pb_report/probe/3869
P1425,http://probebase.csb.univie.ac.at/pb_report/probe/3870
Arch958F,http://probebase.csb.univie.ac.at/pb_report/probe/3871
967R,http://probebase.csb.univie.ac.at/pb_report/probe/3872
U906R,http://probebase.csb.univie.ac.at/pb_report/probe/3873
U1053R,http://probebase.csb.univie.ac.at/pb_report/probe/3874
Arch915F,http://probebase.csb.univie.ac.at/pb_report/probe/3875
P609R,http://probebase.csb.univie.ac.at/pb_report/probe/3876
pBR-V1.ASF,http://probebase.csb.univie.ac.at/pb_report/probe/3877
bio-pJBS-V3.SER,http://probebase.csb.univie.ac.at/pb_report/probe/3878
Aqua828,http://probebase.csb.univie.ac.at/pb_report/probe/2
Pomo828,http://probebase.csb.univie.ac.at/pb_report/probe/3
Gor596,http://probebase.csb.univie.ac.at/pb_report/probe/4
Fibr225,http://probebase.csb.univie.ac.at/pb_report/probe/5
ACA652 (ACA23A),http://probebase.csb.univie.ac.at/pb_report/probe/12
Ade441,http://probebase.csb.univie.ac.at/pb_report/probe/15
ALBO34a,http://probebase.csb.univie.ac.at/pb_report/probe/16
ALF1B,http://probebase.csb.univie.ac.at/pb_report/probe/17
ALF4-1322,http://probebase.csb.univie.ac.at/pb_report/probe/18
ALF921,http://probebase.csb.univie.ac.at/pb_report/probe/20
ALF968,http://probebase.csb.univie.ac.at/pb_report/probe/21
AT1458,http://probebase.csb.univie.ac.at/pb_report/probe/28
Azo1251,http://probebase.csb.univie.ac.at/pb_report/probe/29
AZA483,http://probebase.csb.univie.ac.at/pb_report/probe/30
BAC303,http://probebase.csb.univie.ac.at/pb_report/probe/31
Bcv13b,http://probebase.csb.univie.ac.at/pb_report/probe/33
BET42a,http://probebase.csb.univie.ac.at/pb_report/probe/34
LSPotu11021-1127,http://probebase.csb.univie.ac.at/pb_report/probe/36
BONE23A,http://probebase.csb.univie.ac.at/pb_report/probe/39
BTWO23A,http://probebase.csb.univie.ac.at/pb_report/probe/40
CF319a,http://probebase.csb.univie.ac.at/pb_report/probe/42
CF319b,http://probebase.csb.univie.ac.at/pb_report/probe/43
CFB286,http://probebase.csb.univie.ac.at/pb_report/probe/45
CFB563,http://probebase.csb.univie.ac.at/pb_report/probe/46
CFB719,http://probebase.csb.univie.ac.at/pb_report/probe/47
CFB972,http://probebase.csb.univie.ac.at/pb_report/probe/48
Chls-0523,http://probebase.csb.univie.ac.at/pb_report/probe/49
cl81-644,http://probebase.csb.univie.ac.at/pb_report/probe/51
CREN499,http://probebase.csb.univie.ac.at/pb_report/probe/54
660(DBB660),http://probebase.csb.univie.ac.at/pb_report/probe/61
221(DBM221),http://probebase.csb.univie.ac.at/pb_report/probe/62
DCC209,http://probebase.csb.univie.ac.at/pb_report/probe/63
DEM1164r,http://probebase.csb.univie.ac.at/pb_report/probe/67
DNMA657,http://probebase.csb.univie.ac.at/pb_report/probe/71
DRM432,http://probebase.csb.univie.ac.at/pb_report/probe/72
129(DSB129),http://probebase.csb.univie.ac.at/pb_report/probe/73
DSB985,http://probebase.csb.univie.ac.at/pb_report/probe/75
DSBAC355,http://probebase.csb.univie.ac.at/pb_report/probe/76
DSBO224,http://probebase.csb.univie.ac.at/pb_report/probe/77
DSC193,http://probebase.csb.univie.ac.at/pb_report/probe/78
DSD131 (DSVAE131),http://probebase.csb.univie.ac.at/pb_report/probe/79
DSF672,http://probebase.csb.univie.ac.at/pb_report/probe/80
DSMA488,http://probebase.csb.univie.ac.at/pb_report/probe/81
DSR651,http://probebase.csb.univie.ac.at/pb_report/probe/82
DSS225,http://probebase.csb.univie.ac.at/pb_report/probe/83
DSS658,http://probebase.csb.univie.ac.at/pb_report/probe/84
DSV1292,http://probebase.csb.univie.ac.at/pb_report/probe/86
DSV214,http://probebase.csb.univie.ac.at/pb_report/probe/87
DSV407,http://probebase.csb.univie.ac.at/pb_report/probe/88
687(DSV687),http://probebase.csb.univie.ac.at/pb_report/probe/90
DSV698,http://probebase.csb.univie.ac.at/pb_report/probe/91
Dtm(bcd)230,http://probebase.csb.univie.ac.at/pb_report/probe/93
Dtm229,http://probebase.csb.univie.ac.at/pb_report/probe/97
ECO1167 (ECO 45A),http://probebase.csb.univie.ac.at/pb_report/probe/115
EUB338 (Bact338) (bacterial),http://probebase.csb.univie.ac.at/pb_report/probe/159
EUB338 II (SBACT P 338),http://probebase.csb.univie.ac.at/pb_report/probe/160
EUB338 III (SBACT V 338),http://probebase.csb.univie.ac.at/pb_report/probe/161
EUK516,http://probebase.csb.univie.ac.at/pb_report/probe/162
EURY498,http://probebase.csb.univie.ac.at/pb_report/probe/163
FFE8b,http://probebase.csb.univie.ac.at/pb_report/probe/164
gam1-1246,http://probebase.csb.univie.ac.at/pb_report/probe/165
G123T,http://probebase.csb.univie.ac.at/pb_report/probe/170
G1B,http://probebase.csb.univie.ac.at/pb_report/probe/171
G2M,http://probebase.csb.univie.ac.at/pb_report/probe/172
G3M,http://probebase.csb.univie.ac.at/pb_report/probe/173
GAM42a,http://probebase.csb.univie.ac.at/pb_report/probe/174
Goam192,http://probebase.csb.univie.ac.at/pb_report/probe/179
H7-1014,http://probebase.csb.univie.ac.at/pb_report/probe/181
HGC69A (HGC),http://probebase.csb.univie.ac.at/pb_report/probe/182
HoAc1402,http://probebase.csb.univie.ac.at/pb_report/probe/183
Hvu1034,http://probebase.csb.univie.ac.at/pb_report/probe/184
HYD208,http://probebase.csb.univie.ac.at/pb_report/probe/185
HYD56B,http://probebase.csb.univie.ac.at/pb_report/probe/186
Hydr540,http://probebase.csb.univie.ac.at/pb_report/probe/187
LEG226,http://probebase.csb.univie.ac.at/pb_report/probe/192
LEG705,http://probebase.csb.univie.ac.at/pb_report/probe/193
LEGPNE1,http://probebase.csb.univie.ac.at/pb_report/probe/194
LGC354A,http://probebase.csb.univie.ac.at/pb_report/probe/195
LGC354B,http://probebase.csb.univie.ac.at/pb_report/probe/196
LGC354C,http://probebase.csb.univie.ac.at/pb_report/probe/197
MB1174,http://probebase.csb.univie.ac.at/pb_report/probe/201
MC1109,http://probebase.csb.univie.ac.at/pb_report/probe/206
MS1414,http://probebase.csb.univie.ac.at/pb_report/probe/226
MS821,http://probebase.csb.univie.ac.at/pb_report/probe/229
MSMX860,http://probebase.csb.univie.ac.at/pb_report/probe/230
MX825,http://probebase.csb.univie.ac.at/pb_report/probe/232
Myb736a,http://probebase.csb.univie.ac.at/pb_report/probe/233
Myb736b,http://probebase.csb.univie.ac.at/pb_report/probe/234
NAL1208,http://probebase.csb.univie.ac.at/pb_report/probe/235
NAL657,http://probebase.csb.univie.ac.at/pb_report/probe/236
NIT3,http://probebase.csb.univie.ac.at/pb_report/probe/241
NmV (Ncmob),http://probebase.csb.univie.ac.at/pb_report/probe/242
NONEUB (NON338) (non-Bact338),http://probebase.csb.univie.ac.at/pb_report/probe/243
Nse1472,http://probebase.csb.univie.ac.at/pb_report/probe/246
Nsm156,http://probebase.csb.univie.ac.at/pb_report/probe/247
Nso1225,http://probebase.csb.univie.ac.at/pb_report/probe/248
Nso190,http://probebase.csb.univie.ac.at/pb_report/probe/249
Nsv443,http://probebase.csb.univie.ac.at/pb_report/probe/250
Ntcoc84,http://probebase.csb.univie.ac.at/pb_report/probe/251
Ntspa1026,http://probebase.csb.univie.ac.at/pb_report/probe/252
Ntspa662,http://probebase.csb.univie.ac.at/pb_report/probe/253
Ntspa712,http://probebase.csb.univie.ac.at/pb_report/probe/254
Ntspn693,http://probebase.csb.univie.ac.at/pb_report/probe/255
OTU1-1415,http://probebase.csb.univie.ac.at/pb_report/probe/256
OTU14-129,http://probebase.csb.univie.ac.at/pb_report/probe/257
OTU16-1027,http://probebase.csb.univie.ac.at/pb_report/probe/258
OTU16-1350,http://probebase.csb.univie.ac.at/pb_report/probe/259
OTU17-66,http://probebase.csb.univie.ac.at/pb_report/probe/260
OTU2-132 (ATDe132),http://probebase.csb.univie.ac.at/pb_report/probe/261
OTU2-467,http://probebase.csb.univie.ac.at/pb_report/probe/262
OTU25to31-1406,http://probebase.csb.univie.ac.at/pb_report/probe/263
OTU26-650,http://probebase.csb.univie.ac.at/pb_report/probe/264
OTU28-1346,http://probebase.csb.univie.ac.at/pb_report/probe/265
STEBA1426,http://probebase.csb.univie.ac.at/pb_report/probe/266
OTU31-656,http://probebase.csb.univie.ac.at/pb_report/probe/267
OTU32-208,http://probebase.csb.univie.ac.at/pb_report/probe/268
OTU32-630,http://probebase.csb.univie.ac.at/pb_report/probe/269
OTU3-445,http://probebase.csb.univie.ac.at/pb_report/probe/270
OTU43/44-360,http://probebase.csb.univie.ac.at/pb_report/probe/271
OTU45-720,http://probebase.csb.univie.ac.at/pb_report/probe/272
OTU4-645,http://probebase.csb.univie.ac.at/pb_report/probe/273
OTU6-178,http://probebase.csb.univie.ac.at/pb_report/probe/274
PAR1244,http://probebase.csb.univie.ac.at/pb_report/probe/277
PAR1457,http://probebase.csb.univie.ac.at/pb_report/probe/278
PAR651,http://probebase.csb.univie.ac.at/pb_report/probe/279
Pdv1031,http://probebase.csb.univie.ac.at/pb_report/probe/280
Pdv198,http://probebase.csb.univie.ac.at/pb_report/probe/281
PLA46,http://probebase.csb.univie.ac.at/pb_report/probe/283
PLA886,http://probebase.csb.univie.ac.at/pb_report/probe/284
Ppu56a,http://probebase.csb.univie.ac.at/pb_report/probe/287
PS56a,http://probebase.csb.univie.ac.at/pb_report/probe/289
Ps-Ag1,http://probebase.csb.univie.ac.at/pb_report/probe/290
SARCI551,http://probebase.csb.univie.ac.at/pb_report/probe/297
SARCI645,http://probebase.csb.univie.ac.at/pb_report/probe/298
SRB385 (SRB),http://probebase.csb.univie.ac.at/pb_report/probe/300
SRB385Db,http://probebase.csb.univie.ac.at/pb_report/probe/301
SUBU1237,http://probebase.csb.univie.ac.at/pb_report/probe/304
Sval428,http://probebase.csb.univie.ac.at/pb_report/probe/306
Tbcil832,http://probebase.csb.univie.ac.at/pb_report/probe/310
Thus438,http://probebase.csb.univie.ac.at/pb_report/probe/314
Ttoga660,http://probebase.csb.univie.ac.at/pb_report/probe/325
UNIV1390,http://probebase.csb.univie.ac.at/pb_report/probe/327
XAN818,http://probebase.csb.univie.ac.at/pb_report/probe/329
ZAL,http://probebase.csb.univie.ac.at/pb_report/probe/330
ZBE,http://probebase.csb.univie.ac.at/pb_report/probe/331
"ZRA23a (ZRA,ZOGLO647)",http://probebase.csb.univie.ac.at/pb_report/probe/332
PcaeC9,http://probebase.csb.univie.ac.at/pb_report/probe/334
PcaeE39,http://probebase.csb.univie.ac.at/pb_report/probe/335
CaeAc998,http://probebase.csb.univie.ac.at/pb_report/probe/336
Mg705,http://probebase.csb.univie.ac.at/pb_report/probe/337
Mg84,http://probebase.csb.univie.ac.at/pb_report/probe/338
Ma450,http://probebase.csb.univie.ac.at/pb_report/probe/339
Ma464,http://probebase.csb.univie.ac.at/pb_report/probe/340
Mg669,http://probebase.csb.univie.ac.at/pb_report/probe/341
Mg1004,http://probebase.csb.univie.ac.at/pb_report/probe/342
Stemal,http://probebase.csb.univie.ac.at/pb_report/probe/345
Burcep,http://probebase.csb.univie.ac.at/pb_report/probe/346
Burkho,http://probebase.csb.univie.ac.at/pb_report/probe/347
Haeinf,http://probebase.csb.univie.ac.at/pb_report/probe/348
Sau,http://probebase.csb.univie.ac.at/pb_report/probe/349
Spn,http://probebase.csb.univie.ac.at/pb_report/probe/350
Ent,http://probebase.csb.univie.ac.at/pb_report/probe/351
Kpn,http://probebase.csb.univie.ac.at/pb_report/probe/352
Caal,http://probebase.csb.univie.ac.at/pb_report/probe/353
Cagl,http://probebase.csb.univie.ac.at/pb_report/probe/354
Ckrus,http://probebase.csb.univie.ac.at/pb_report/probe/355
Cpara651 (Cpara),http://probebase.csb.univie.ac.at/pb_report/probe/356
PF2,http://probebase.csb.univie.ac.at/pb_report/probe/357
Str,http://probebase.csb.univie.ac.at/pb_report/probe/358
Spy,http://probebase.csb.univie.ac.at/pb_report/probe/359
Saga,http://probebase.csb.univie.ac.at/pb_report/probe/360
Hpy-1,http://probebase.csb.univie.ac.at/pb_report/probe/361
ClaR1,http://probebase.csb.univie.ac.at/pb_report/probe/362
ClaR2,http://probebase.csb.univie.ac.at/pb_report/probe/363
ClaR3,http://probebase.csb.univie.ac.at/pb_report/probe/364
ClaWT,http://probebase.csb.univie.ac.at/pb_report/probe/365
ATE,http://probebase.csb.univie.ac.at/pb_report/probe/366
BKE,http://probebase.csb.univie.ac.at/pb_report/probe/367
CGL,http://probebase.csb.univie.ac.at/pb_report/probe/368
Pst67,http://probebase.csb.univie.ac.at/pb_report/probe/369
Pst997,http://probebase.csb.univie.ac.at/pb_report/probe/370
Pae997,http://probebase.csb.univie.ac.at/pb_report/probe/371
ACI208,http://probebase.csb.univie.ac.at/pb_report/probe/372
COM1424,http://probebase.csb.univie.ac.at/pb_report/probe/373
Ps,http://probebase.csb.univie.ac.at/pb_report/probe/374
Ppu,http://probebase.csb.univie.ac.at/pb_report/probe/375
Pce,http://probebase.csb.univie.ac.at/pb_report/probe/376
Pdi,http://probebase.csb.univie.ac.at/pb_report/probe/377
Cte,http://probebase.csb.univie.ac.at/pb_report/probe/378
NEU,http://probebase.csb.univie.ac.at/pb_report/probe/382
PseaerA,http://probebase.csb.univie.ac.at/pb_report/probe/383
PseaerA,http://probebase.csb.univie.ac.at/pb_report/probe/384
Amx1900,http://probebase.csb.univie.ac.at/pb_report/probe/406
Kst157,http://probebase.csb.univie.ac.at/pb_report/probe/407
Ban162 (B. anam.),http://probebase.csb.univie.ac.at/pb_report/probe/408
Amx820,http://probebase.csb.univie.ac.at/pb_report/probe/409
Syb701,http://probebase.csb.univie.ac.at/pb_report/probe/411
GNSB633,http://probebase.csb.univie.ac.at/pb_report/probe/412
DELTA495a,http://probebase.csb.univie.ac.at/pb_report/probe/432
DELTA495b,http://probebase.csb.univie.ac.at/pb_report/probe/433
DELTA495c,http://probebase.csb.univie.ac.at/pb_report/probe/434
DSB706,http://probebase.csb.univie.ac.at/pb_report/probe/436
DSM213,http://probebase.csb.univie.ac.at/pb_report/probe/507
Tdsulfo848 (TDSV849),http://probebase.csb.univie.ac.at/pb_report/probe/533
Phasco741,http://probebase.csb.univie.ac.at/pb_report/probe/552
Veil223,http://probebase.csb.univie.ac.at/pb_report/probe/553
Ehal1469,http://probebase.csb.univie.ac.at/pb_report/probe/554
Lach571,http://probebase.csb.univie.ac.at/pb_report/probe/555
Ecyl387,http://probebase.csb.univie.ac.at/pb_report/probe/556
Rfla729,http://probebase.csb.univie.ac.at/pb_report/probe/557
Rbro730,http://probebase.csb.univie.ac.at/pb_report/probe/558
RHC439,http://probebase.csb.univie.ac.at/pb_report/probe/560
RHW456,http://probebase.csb.univie.ac.at/pb_report/probe/561
RHW991,http://probebase.csb.univie.ac.at/pb_report/probe/562
RHX456,http://probebase.csb.univie.ac.at/pb_report/probe/563
RHX991,http://probebase.csb.univie.ac.at/pb_report/probe/564
MG-64,http://probebase.csb.univie.ac.at/pb_report/probe/582
MA-621,http://probebase.csb.univie.ac.at/pb_report/probe/583
MA-221,http://probebase.csb.univie.ac.at/pb_report/probe/584
Mc1029,http://probebase.csb.univie.ac.at/pb_report/probe/585
Chlae-574,http://probebase.csb.univie.ac.at/pb_report/probe/588
Chla-0232,http://probebase.csb.univie.ac.at/pb_report/probe/589
Chlph-0583,http://probebase.csb.univie.ac.at/pb_report/probe/590
Ct-0623,http://probebase.csb.univie.ac.at/pb_report/probe/591
Cpn-0214,http://probebase.csb.univie.ac.at/pb_report/probe/592
Cpn-0974,http://probebase.csb.univie.ac.at/pb_report/probe/593
Cps-1414,http://probebase.csb.univie.ac.at/pb_report/probe/594
Cps-1353,http://probebase.csb.univie.ac.at/pb_report/probe/595
Bn9-658,http://probebase.csb.univie.ac.at/pb_report/probe/596
ParaC-0658,http://probebase.csb.univie.ac.at/pb_report/probe/597
Ctaenio-998,http://probebase.csb.univie.ac.at/pb_report/probe/598
TM7305,http://probebase.csb.univie.ac.at/pb_report/probe/599
TM7905,http://probebase.csb.univie.ac.at/pb_report/probe/600
TM7522,http://probebase.csb.univie.ac.at/pb_report/probe/601
TM7567,http://probebase.csb.univie.ac.at/pb_report/probe/602
CHL 1851,http://probebase.csb.univie.ac.at/pb_report/probe/603
Enterbact D,http://probebase.csb.univie.ac.at/pb_report/probe/607
Enterbact B,http://probebase.csb.univie.ac.at/pb_report/probe/608
ALT1413,http://probebase.csb.univie.ac.at/pb_report/probe/609
G Rb,http://probebase.csb.univie.ac.at/pb_report/probe/610
G V,http://probebase.csb.univie.ac.at/pb_report/probe/611
NOR1-56,http://probebase.csb.univie.ac.at/pb_report/probe/612
NOR2-1453,http://probebase.csb.univie.ac.at/pb_report/probe/613
OCE232,http://probebase.csb.univie.ac.at/pb_report/probe/614
PSA184,http://probebase.csb.univie.ac.at/pb_report/probe/615
SAR86-1249,http://probebase.csb.univie.ac.at/pb_report/probe/616
SPH120,http://probebase.csb.univie.ac.at/pb_report/probe/617
Hypho-1241,http://probebase.csb.univie.ac.at/pb_report/probe/618
Gam1019,http://probebase.csb.univie.ac.at/pb_report/probe/621
Gam1278,http://probebase.csb.univie.ac.at/pb_report/probe/622
PAO846,http://probebase.csb.univie.ac.at/pb_report/probe/623
actino-1011,http://probebase.csb.univie.ac.at/pb_report/probe/624
NSR826,http://probebase.csb.univie.ac.at/pb_report/probe/625
NSR1156,http://probebase.csb.univie.ac.at/pb_report/probe/626
NSR447,http://probebase.csb.univie.ac.at/pb_report/probe/627
MNP1,http://probebase.csb.univie.ac.at/pb_report/probe/628
MLP,http://probebase.csb.univie.ac.at/pb_report/probe/629
DLP,http://probebase.csb.univie.ac.at/pb_report/probe/630
GLP1,http://probebase.csb.univie.ac.at/pb_report/probe/631
GLP2,http://probebase.csb.univie.ac.at/pb_report/probe/632
GLP3,http://probebase.csb.univie.ac.at/pb_report/probe/633
E.bar1237,http://probebase.csb.univie.ac.at/pb_report/probe/634
E.bif462,http://probebase.csb.univie.ac.at/pb_report/probe/635
E.con1122,http://probebase.csb.univie.ac.at/pb_report/probe/636
E.cyl461,http://probebase.csb.univie.ac.at/pb_report/probe/637
E.cyl466,http://probebase.csb.univie.ac.at/pb_report/probe/638
E.dol183,http://probebase.csb.univie.ac.at/pb_report/probe/639
E.had579,http://probebase.csb.univie.ac.at/pb_report/probe/640
E.len194,http://probebase.csb.univie.ac.at/pb_report/probe/641
E.lim1433,http://probebase.csb.univie.ac.at/pb_report/probe/642
E.mon84,http://probebase.csb.univie.ac.at/pb_report/probe/643
E.ven66,http://probebase.csb.univie.ac.at/pb_report/probe/644
GSB-532,http://probebase.csb.univie.ac.at/pb_report/probe/645
GSB-822,http://probebase.csb.univie.ac.at/pb_report/probe/646
GNSB-941,http://probebase.csb.univie.ac.at/pb_report/probe/718
CFX1223,http://probebase.csb.univie.ac.at/pb_report/probe/719
CFX109,http://probebase.csb.univie.ac.at/pb_report/probe/720
CFX784,http://probebase.csb.univie.ac.at/pb_report/probe/721
EUK1195,http://probebase.csb.univie.ac.at/pb_report/probe/722
Glsc407,http://probebase.csb.univie.ac.at/pb_report/probe/727
Glsc413,http://probebase.csb.univie.ac.at/pb_report/probe/728
Glsc651,http://probebase.csb.univie.ac.at/pb_report/probe/729
Glsc1129,http://probebase.csb.univie.ac.at/pb_report/probe/730
R-BT065,http://probebase.csb.univie.ac.at/pb_report/probe/731
R-FL615,http://probebase.csb.univie.ac.at/pb_report/probe/732
TGP690,http://probebase.csb.univie.ac.at/pb_report/probe/739
Pchl454,http://probebase.csb.univie.ac.at/pb_report/probe/740
muD1,http://probebase.csb.univie.ac.at/pb_report/probe/741
auD1,http://probebase.csb.univie.ac.at/pb_report/probe/742
puD1,http://probebase.csb.univie.ac.at/pb_report/probe/743
CHLO02,http://probebase.csb.univie.ac.at/pb_report/probe/746
CHLO01,http://probebase.csb.univie.ac.at/pb_report/probe/747
NCHLO01,http://probebase.csb.univie.ac.at/pb_report/probe/748
PI1,http://probebase.csb.univie.ac.at/pb_report/probe/749
PI2,http://probebase.csb.univie.ac.at/pb_report/probe/750
PIMP1683,http://probebase.csb.univie.ac.at/pb_report/probe/751
PIMP635,http://probebase.csb.univie.ac.at/pb_report/probe/752
PIMP635,http://probebase.csb.univie.ac.at/pb_report/probe/753
PV1,http://probebase.csb.univie.ac.at/pb_report/probe/754
PV2,http://probebase.csb.univie.ac.at/pb_report/probe/755
PV3,http://probebase.csb.univie.ac.at/pb_report/probe/756
PV4,http://probebase.csb.univie.ac.at/pb_report/probe/757
PV5,http://probebase.csb.univie.ac.at/pb_report/probe/758
405_Pro,http://probebase.csb.univie.ac.at/pb_report/probe/759
181_ProHLI,http://probebase.csb.univie.ac.at/pb_report/probe/760
645_ProHLI,http://probebase.csb.univie.ac.at/pb_report/probe/761
645_ProHLII,http://probebase.csb.univie.ac.at/pb_report/probe/762
1445_ProNATL,http://probebase.csb.univie.ac.at/pb_report/probe/763
181_ProLL,http://probebase.csb.univie.ac.at/pb_report/probe/764
645_ProLL,http://probebase.csb.univie.ac.at/pb_report/probe/765
405_Syn,http://probebase.csb.univie.ac.at/pb_report/probe/766
NA1,http://probebase.csb.univie.ac.at/pb_report/probe/767
P.pisc,http://probebase.csb.univie.ac.at/pb_report/probe/770
EUK1209,http://probebase.csb.univie.ac.at/pb_report/probe/771
PAO651 (ACCBA651),http://probebase.csb.univie.ac.at/pb_report/probe/774
GAOQ431,http://probebase.csb.univie.ac.at/pb_report/probe/775
GAOQ989,http://probebase.csb.univie.ac.at/pb_report/probe/776
ACAC,http://probebase.csb.univie.ac.at/pb_report/probe/778
B(T)AFO,http://probebase.csb.univie.ac.at/pb_report/probe/779
POGI,http://probebase.csb.univie.ac.at/pb_report/probe/780
PRIN,http://probebase.csb.univie.ac.at/pb_report/probe/781
FUSO,http://probebase.csb.univie.ac.at/pb_report/probe/782
VEPA,http://probebase.csb.univie.ac.at/pb_report/probe/783
CREN512,http://probebase.csb.univie.ac.at/pb_report/probe/788
CREN569,http://probebase.csb.univie.ac.at/pb_report/probe/789
EURY496,http://probebase.csb.univie.ac.at/pb_report/probe/790
EURY499,http://probebase.csb.univie.ac.at/pb_report/probe/791
EURY514,http://probebase.csb.univie.ac.at/pb_report/probe/792
Cap1428,http://probebase.csb.univie.ac.at/pb_report/probe/878
EUKb1193,http://probebase.csb.univie.ac.at/pb_report/probe/879
EUKb503,http://probebase.csb.univie.ac.at/pb_report/probe/880
EUKb310,http://probebase.csb.univie.ac.at/pb_report/probe/881
LKC59,http://probebase.csb.univie.ac.at/pb_report/probe/882
LKC1006,http://probebase.csb.univie.ac.at/pb_report/probe/883
HHY,http://probebase.csb.univie.ac.at/pb_report/probe/884
TNI,http://probebase.csb.univie.ac.at/pb_report/probe/885
LMU,http://probebase.csb.univie.ac.at/pb_report/probe/886
21N,http://probebase.csb.univie.ac.at/pb_report/probe/887
LDI,http://probebase.csb.univie.ac.at/pb_report/probe/888
SNA,http://probebase.csb.univie.ac.at/pb_report/probe/889
Hp16S-1,http://probebase.csb.univie.ac.at/pb_report/probe/896
beta-572,http://probebase.csb.univie.ac.at/pb_report/probe/897
OalgGAM445,http://probebase.csb.univie.ac.at/pb_report/probe/898
OalgDEL136,http://probebase.csb.univie.ac.at/pb_report/probe/899
I. leu. (IleuSYM581),http://probebase.csb.univie.ac.at/pb_report/probe/900
O. tan. (OtanSYM581),http://probebase.csb.univie.ac.at/pb_report/probe/901
PRYM02,http://probebase.csb.univie.ac.at/pb_report/probe/902
PTB-6-7/1030,http://probebase.csb.univie.ac.at/pb_report/probe/903
PTB-6-7/997,http://probebase.csb.univie.ac.at/pb_report/probe/904
PTB-1/482,http://probebase.csb.univie.ac.at/pb_report/probe/905
PTB-1/1014,http://probebase.csb.univie.ac.at/pb_report/probe/906
PTB-all/646,http://probebase.csb.univie.ac.at/pb_report/probe/907
PELA02,http://probebase.csb.univie.ac.at/pb_report/probe/908
PELA01,http://probebase.csb.univie.ac.at/pb_report/probe/909
PAO462,http://probebase.csb.univie.ac.at/pb_report/probe/910
ALBO577,http://probebase.csb.univie.ac.at/pb_report/probe/912
DEV677,http://probebase.csb.univie.ac.at/pb_report/probe/913
ENT183,http://probebase.csb.univie.ac.at/pb_report/probe/914
FLX101,http://probebase.csb.univie.ac.at/pb_report/probe/915
MET1217,http://probebase.csb.univie.ac.at/pb_report/probe/916
NEV817,http://probebase.csb.univie.ac.at/pb_report/probe/917
PED672,http://probebase.csb.univie.ac.at/pb_report/probe/918
SPH492,http://probebase.csb.univie.ac.at/pb_report/probe/919
Ecras651,http://probebase.csb.univie.ac.at/pb_report/probe/920
Ecras1246,http://probebase.csb.univie.ac.at/pb_report/probe/921
Evan651,http://probebase.csb.univie.ac.at/pb_report/probe/922
Emin619,http://probebase.csb.univie.ac.at/pb_report/probe/923
Emin651,http://probebase.csb.univie.ac.at/pb_report/probe/924
PNA,http://probebase.csb.univie.ac.at/pb_report/probe/925
Mcaps-1032,http://probebase.csb.univie.ac.at/pb_report/probe/926
Msint-1268,http://probebase.csb.univie.ac.at/pb_report/probe/927
Msins-647,http://probebase.csb.univie.ac.at/pb_report/probe/928
Mcyst-1432,http://probebase.csb.univie.ac.at/pb_report/probe/929
Mcyst-1261,http://probebase.csb.univie.ac.at/pb_report/probe/930
Cluster6a192 (6a192),http://probebase.csb.univie.ac.at/pb_report/probe/931
PBR2,http://probebase.csb.univie.ac.at/pb_report/probe/932
EBAC1790,http://probebase.csb.univie.ac.at/pb_report/probe/934
Ntspa685,http://probebase.csb.univie.ac.at/pb_report/probe/935
Myc657,http://probebase.csb.univie.ac.at/pb_report/probe/940
Hpy16S,http://probebase.csb.univie.ac.at/pb_report/probe/941
COR653,http://probebase.csb.univie.ac.at/pb_report/probe/942
ATO291,http://probebase.csb.univie.ac.at/pb_report/probe/943
Nscry1004,http://probebase.csb.univie.ac.at/pb_report/probe/946
Nscoc65,http://probebase.csb.univie.ac.at/pb_report/probe/947
Nscoc1248,http://probebase.csb.univie.ac.at/pb_report/probe/948
Dhe1259t,http://probebase.csb.univie.ac.at/pb_report/probe/949
Dhe1259c,http://probebase.csb.univie.ac.at/pb_report/probe/950
Sca1309,http://probebase.csb.univie.ac.at/pb_report/probe/951
Scabr1114,http://probebase.csb.univie.ac.at/pb_report/probe/952
Amx368,http://probebase.csb.univie.ac.at/pb_report/probe/953
BS820,http://probebase.csb.univie.ac.at/pb_report/probe/954
NSMR76,http://probebase.csb.univie.ac.at/pb_report/probe/955
NSMR34,http://probebase.csb.univie.ac.at/pb_report/probe/956
Nmo218,http://probebase.csb.univie.ac.at/pb_report/probe/957
Bfra602,http://probebase.csb.univie.ac.at/pb_report/probe/959
Bdis656,http://probebase.csb.univie.ac.at/pb_report/probe/960
Clit135,http://probebase.csb.univie.ac.at/pb_report/probe/961
Chis150,http://probebase.csb.univie.ac.at/pb_report/probe/962
Erec482,http://probebase.csb.univie.ac.at/pb_report/probe/963
Strc493,http://probebase.csb.univie.ac.at/pb_report/probe/964
GB,http://probebase.csb.univie.ac.at/pb_report/probe/966
GB_G1 (GAOQ989),http://probebase.csb.univie.ac.at/pb_report/probe/967
GB_G2,http://probebase.csb.univie.ac.at/pb_report/probe/968
GB_4,http://probebase.csb.univie.ac.at/pb_report/probe/972
GB_6 (Gam1019),http://probebase.csb.univie.ac.at/pb_report/probe/974
GB_7,http://probebase.csb.univie.ac.at/pb_report/probe/975
CFB560,http://probebase.csb.univie.ac.at/pb_report/probe/976
CFB562,http://probebase.csb.univie.ac.at/pb_report/probe/977
CFB376,http://probebase.csb.univie.ac.at/pb_report/probe/978
Lis-637,http://probebase.csb.univie.ac.at/pb_report/probe/979
Mka220,http://probebase.csb.univie.ac.at/pb_report/probe/980
Mkb221,http://probebase.csb.univie.ac.at/pb_report/probe/981
Mkc219,http://probebase.csb.univie.ac.at/pb_report/probe/982
Mkd1111,http://probebase.csb.univie.ac.at/pb_report/probe/983
SGR220,http://probebase.csb.univie.ac.at/pb_report/probe/984
SGR1200,http://probebase.csb.univie.ac.at/pb_report/probe/985
SGR1425,http://probebase.csb.univie.ac.at/pb_report/probe/986
Bak655,http://probebase.csb.univie.ac.at/pb_report/probe/987
Bak1408,http://probebase.csb.univie.ac.at/pb_report/probe/988
ARC94,http://probebase.csb.univie.ac.at/pb_report/probe/989
ARC1430,http://probebase.csb.univie.ac.at/pb_report/probe/990
ACA652b,http://probebase.csb.univie.ac.at/pb_report/probe/991
T25-1028,http://probebase.csb.univie.ac.at/pb_report/probe/992
T25-220,http://probebase.csb.univie.ac.at/pb_report/probe/993
T28-649,http://probebase.csb.univie.ac.at/pb_report/probe/994
T28-1435,http://probebase.csb.univie.ac.at/pb_report/probe/995
GAM42_C1033,http://probebase.csb.univie.ac.at/pb_report/probe/1005
Lbrev,http://probebase.csb.univie.ac.at/pb_report/probe/1006
Lcoll,http://probebase.csb.univie.ac.at/pb_report/probe/1007
Lcory,http://probebase.csb.univie.ac.at/pb_report/probe/1008
Lfarc,http://probebase.csb.univie.ac.at/pb_report/probe/1009
Lhilg,http://probebase.csb.univie.ac.at/pb_report/probe/1010
Lmali,http://probebase.csb.univie.ac.at/pb_report/probe/1011
Lpara,http://probebase.csb.univie.ac.at/pb_report/probe/1012
Lzeae,http://probebase.csb.univie.ac.at/pb_report/probe/1013
Ooeni,http://probebase.csb.univie.ac.at/pb_report/probe/1014
Pdamn,http://probebase.csb.univie.ac.at/pb_report/probe/1015
Pparv,http://probebase.csb.univie.ac.at/pb_report/probe/1016
Urobe63a,http://probebase.csb.univie.ac.at/pb_report/probe/1017
Urobe63b,http://probebase.csb.univie.ac.at/pb_report/probe/1018
CFX1238,http://probebase.csb.univie.ac.at/pb_report/probe/1019
RFX1238,http://probebase.csb.univie.ac.at/pb_report/probe/1020
Pchl454,http://probebase.csb.univie.ac.at/pb_report/probe/1021
b91,http://probebase.csb.univie.ac.at/pb_report/probe/1022
b162,http://probebase.csb.univie.ac.at/pb_report/probe/1023
b886,http://probebase.csb.univie.ac.at/pb_report/probe/1024
b1273,http://probebase.csb.univie.ac.at/pb_report/probe/1025
g80,http://probebase.csb.univie.ac.at/pb_report/probe/1026
g458,http://probebase.csb.univie.ac.at/pb_report/probe/1027
g630,http://probebase.csb.univie.ac.at/pb_report/probe/1028
g1273,http://probebase.csb.univie.ac.at/pb_report/probe/1029
NLIMI 91,http://probebase.csb.univie.ac.at/pb_report/probe/1030
NLIMII 175,http://probebase.csb.univie.ac.at/pb_report/probe/1031
NLIMII 192,http://probebase.csb.univie.ac.at/pb_report/probe/1032
NLIMIII 301,http://probebase.csb.univie.ac.at/pb_report/probe/1033
NLIMIII 729,http://probebase.csb.univie.ac.at/pb_report/probe/1034
NLIMIII 830,http://probebase.csb.univie.ac.at/pb_report/probe/1035
Bmy843,http://probebase.csb.univie.ac.at/pb_report/probe/1036
Ver620,http://probebase.csb.univie.ac.at/pb_report/probe/1037
MIB661,http://probebase.csb.univie.ac.at/pb_report/probe/1038
MIB724,http://probebase.csb.univie.ac.at/pb_report/probe/1039
LGC,http://probebase.csb.univie.ac.at/pb_report/probe/1040
Clost I,http://probebase.csb.univie.ac.at/pb_report/probe/1041
AW,http://probebase.csb.univie.ac.at/pb_report/probe/1042
DSV (DSV321),http://probebase.csb.univie.ac.at/pb_report/probe/1043
AMAR 839,http://probebase.csb.univie.ac.at/pb_report/probe/1044
RSOLA,http://probebase.csb.univie.ac.at/pb_report/probe/1047
RSOLB,http://probebase.csb.univie.ac.at/pb_report/probe/1048
TTI-732,http://probebase.csb.univie.ac.at/pb_report/probe/1049
Dev1-486,http://probebase.csb.univie.ac.at/pb_report/probe/1050
Dev14-486,http://probebase.csb.univie.ac.at/pb_report/probe/1051
Dev14-Tp652,http://probebase.csb.univie.ac.at/pb_report/probe/1052
Oxy8-Tp444,http://probebase.csb.univie.ac.at/pb_report/probe/1053
Oxy26-Tp1281,http://probebase.csb.univie.ac.at/pb_report/probe/1054
Doh299,http://probebase.csb.univie.ac.at/pb_report/probe/1055
Eur1108,http://probebase.csb.univie.ac.at/pb_report/probe/1056
Oil845,http://probebase.csb.univie.ac.at/pb_report/probe/1057
AcRic90,http://probebase.csb.univie.ac.at/pb_report/probe/1058
AcRic1196,http://probebase.csb.univie.ac.at/pb_report/probe/1059
MPH-730,http://probebase.csb.univie.ac.at/pb_report/probe/1067
MPHm-994,http://probebase.csb.univie.ac.at/pb_report/probe/1068
REX72,http://probebase.csb.univie.ac.at/pb_report/probe/1069
LGC353b,http://probebase.csb.univie.ac.at/pb_report/probe/1070
Aph1180,http://probebase.csb.univie.ac.at/pb_report/probe/1080
Rhabdo,http://probebase.csb.univie.ac.at/pb_report/probe/1081
SBR9-1a,http://probebase.csb.univie.ac.at/pb_report/probe/1082
SBR9-1b,http://probebase.csb.univie.ac.at/pb_report/probe/1083
PAG59,http://probebase.csb.univie.ac.at/pb_report/probe/1085
Apur453,http://probebase.csb.univie.ac.at/pb_report/probe/1105
Cmok453,http://probebase.csb.univie.ac.at/pb_report/probe/1106
Laro453,http://probebase.csb.univie.ac.at/pb_report/probe/1107
S453D,http://probebase.csb.univie.ac.at/pb_report/probe/1108
S453F,http://probebase.csb.univie.ac.at/pb_report/probe/1110
DSC213,http://probebase.csb.univie.ac.at/pb_report/probe/1111
DSC441,http://probebase.csb.univie.ac.at/pb_report/probe/1112
S453H,http://probebase.csb.univie.ac.at/pb_report/probe/1113
S448,http://probebase.csb.univie.ac.at/pb_report/probe/1114
SRB441,http://probebase.csb.univie.ac.at/pb_report/probe/1115
DsmA455,http://probebase.csb.univie.ac.at/pb_report/probe/1116
DsmB455,http://probebase.csb.univie.ac.at/pb_report/probe/1117
Chlp441,http://probebase.csb.univie.ac.at/pb_report/probe/1118
Chlc190,http://probebase.csb.univie.ac.at/pb_report/probe/1119
UV7-763,http://probebase.csb.univie.ac.at/pb_report/probe/1120
TG1-Ta-Rsa,http://probebase.csb.univie.ac.at/pb_report/probe/1121
TG1-Pv-Rsa,http://probebase.csb.univie.ac.at/pb_report/probe/1122
Arglo32,http://probebase.csb.univie.ac.at/pb_report/probe/1123
Aqui1197,http://probebase.csb.univie.ac.at/pb_report/probe/1124
Tcoc164,http://probebase.csb.univie.ac.at/pb_report/probe/1125
APL637,http://probebase.csb.univie.ac.at/pb_report/probe/1133
GPL642,http://probebase.csb.univie.ac.at/pb_report/probe/1134
TPL759,http://probebase.csb.univie.ac.at/pb_report/probe/1135
BPL830,http://probebase.csb.univie.ac.at/pb_report/probe/1136
Meiot836,http://probebase.csb.univie.ac.at/pb_report/probe/1138
Proca438,http://probebase.csb.univie.ac.at/pb_report/probe/1139
MB311,http://probebase.csb.univie.ac.at/pb_report/probe/1140
MB1174,http://probebase.csb.univie.ac.at/pb_report/probe/1141
MC504,http://probebase.csb.univie.ac.at/pb_report/probe/1142
MC1109,http://probebase.csb.univie.ac.at/pb_report/probe/1143
MG1200b,http://probebase.csb.univie.ac.at/pb_report/probe/1144
MS821,http://probebase.csb.univie.ac.at/pb_report/probe/1145
MS1414,http://probebase.csb.univie.ac.at/pb_report/probe/1146
MSMX860,http://probebase.csb.univie.ac.at/pb_report/probe/1147
MX825,http://probebase.csb.univie.ac.at/pb_report/probe/1148
MX825b,http://probebase.csb.univie.ac.at/pb_report/probe/1149
MX825c,http://probebase.csb.univie.ac.at/pb_report/probe/1150
MX1361,http://probebase.csb.univie.ac.at/pb_report/probe/1151
HEL274,http://probebase.csb.univie.ac.at/pb_report/probe/1152
HEL717,http://probebase.csb.univie.ac.at/pb_report/probe/1153
HEP642,http://probebase.csb.univie.ac.at/pb_report/probe/1154
GAN1237,http://probebase.csb.univie.ac.at/pb_report/probe/1155
CTE998-1015,http://probebase.csb.univie.ac.at/pb_report/probe/1157
ZNS1439,http://probebase.csb.univie.ac.at/pb_report/probe/1158
ZNS196,http://probebase.csb.univie.ac.at/pb_report/probe/1159
MPA,http://probebase.csb.univie.ac.at/pb_report/probe/1160
PPx3-1428,http://probebase.csb.univie.ac.at/pb_report/probe/1161
Noli-644,http://probebase.csb.univie.ac.at/pb_report/probe/1162
Sita-649,http://probebase.csb.univie.ac.at/pb_report/probe/1164
Combo-1031,http://probebase.csb.univie.ac.at/pb_report/probe/1165
Cate-1013,http://probebase.csb.univie.ac.at/pb_report/probe/1166
MZ1,http://probebase.csb.univie.ac.at/pb_report/probe/1167
GAM42a_T1038_G1031,http://probebase.csb.univie.ac.at/pb_report/probe/1168
GAM42a_T1038,http://probebase.csb.univie.ac.at/pb_report/probe/1169
GAM42a_A1041_A1040,http://probebase.csb.univie.ac.at/pb_report/probe/1170
Cren537,http://probebase.csb.univie.ac.at/pb_report/probe/1171
Eury806,http://probebase.csb.univie.ac.at/pb_report/probe/1172
PnecABCD-445,http://probebase.csb.univie.ac.at/pb_report/probe/1176
Actino-221,http://probebase.csb.univie.ac.at/pb_report/probe/1177
Actino-658,http://probebase.csb.univie.ac.at/pb_report/probe/1178
Ih820,http://probebase.csb.univie.ac.at/pb_report/probe/1179
ProCo1264,http://probebase.csb.univie.ac.at/pb_report/probe/1180
Csac67,http://probebase.csb.univie.ac.at/pb_report/probe/1181
Betthio1001,http://probebase.csb.univie.ac.at/pb_report/probe/1182
Creno445,http://probebase.csb.univie.ac.at/pb_report/probe/1183
Cp653-A,http://probebase.csb.univie.ac.at/pb_report/probe/1184
Cp653-B,http://probebase.csb.univie.ac.at/pb_report/probe/1185
Cp1130-A,http://probebase.csb.univie.ac.at/pb_report/probe/1186
Cp1130-B,http://probebase.csb.univie.ac.at/pb_report/probe/1187
VIB572a,http://probebase.csb.univie.ac.at/pb_report/probe/1188
PSU730,http://probebase.csb.univie.ac.at/pb_report/probe/1190
SHEW227,http://probebase.csb.univie.ac.at/pb_report/probe/1191
MX825b,http://probebase.csb.univie.ac.at/pb_report/probe/1192
MX825c,http://probebase.csb.univie.ac.at/pb_report/probe/1193
MX1361,http://probebase.csb.univie.ac.at/pb_report/probe/1194
MG1200b,http://probebase.csb.univie.ac.at/pb_report/probe/1195
MB311,http://probebase.csb.univie.ac.at/pb_report/probe/1196
MC504,http://probebase.csb.univie.ac.at/pb_report/probe/1197
CST440,http://probebase.csb.univie.ac.at/pb_report/probe/1198
CTH1258,http://probebase.csb.univie.ac.at/pb_report/probe/1199
CUE1240,http://probebase.csb.univie.ac.at/pb_report/probe/1200
CUE647,http://probebase.csb.univie.ac.at/pb_report/probe/1201
BCE182,http://probebase.csb.univie.ac.at/pb_report/probe/1202
DEF988,http://probebase.csb.univie.ac.at/pb_report/probe/1203
FMR0732,http://probebase.csb.univie.ac.at/pb_report/probe/1204
ABl0199,http://probebase.csb.univie.ac.at/pb_report/probe/1205
ABl1002,http://probebase.csb.univie.ac.at/pb_report/probe/1206
TM1G0138,http://probebase.csb.univie.ac.at/pb_report/probe/1207
TM2G0138,http://probebase.csb.univie.ac.at/pb_report/probe/1208
WJ20646,http://probebase.csb.univie.ac.at/pb_report/probe/1209
GALTS0084,http://probebase.csb.univie.ac.at/pb_report/probe/1210
BSC0459,http://probebase.csb.univie.ac.at/pb_report/probe/1211
LGC0355,http://probebase.csb.univie.ac.at/pb_report/probe/1212
ATT0223,http://probebase.csb.univie.ac.at/pb_report/probe/1213
Ntspa1431,http://probebase.csb.univie.ac.at/pb_report/probe/1214
Ntspa1151,http://probebase.csb.univie.ac.at/pb_report/probe/1215
Apr820,http://probebase.csb.univie.ac.at/pb_report/probe/1216
E2d21002,http://probebase.csb.univie.ac.at/pb_report/probe/1217
E1e3 1150,http://probebase.csb.univie.ac.at/pb_report/probe/1218
Ualp-1109,http://probebase.csb.univie.ac.at/pb_report/probe/1219
Sphm-0742,http://probebase.csb.univie.ac.at/pb_report/probe/1220
Bete-1250,http://probebase.csb.univie.ac.at/pb_report/probe/1221
Bete-1419,http://probebase.csb.univie.ac.at/pb_report/probe/1222
Chro-1137,http://probebase.csb.univie.ac.at/pb_report/probe/1223
Caul-1262,http://probebase.csb.univie.ac.at/pb_report/probe/1224
Ubac-1430,http://probebase.csb.univie.ac.at/pb_report/probe/1225
Ubac-1241,http://probebase.csb.univie.ac.at/pb_report/probe/1226
uBet-0984,http://probebase.csb.univie.ac.at/pb_report/probe/1227
Ubet-0834,http://probebase.csb.univie.ac.at/pb_report/probe/1228
Ubet-0990,http://probebase.csb.univie.ac.at/pb_report/probe/1229
Rhoc-0998,http://probebase.csb.univie.ac.at/pb_report/probe/1230
Rhoc-1425,http://probebase.csb.univie.ac.at/pb_report/probe/1231
Thio-1032,http://probebase.csb.univie.ac.at/pb_report/probe/1232
Ach-221,http://probebase.csb.univie.ac.at/pb_report/probe/1233
Alc-476,http://probebase.csb.univie.ac.at/pb_report/probe/1234
Flavo1004,http://probebase.csb.univie.ac.at/pb_report/probe/1245
CLOBU1022,http://probebase.csb.univie.ac.at/pb_report/probe/1246
AERO1244,http://probebase.csb.univie.ac.at/pb_report/probe/1247
Ppu646,http://probebase.csb.univie.ac.at/pb_report/probe/1249
AcI-840-1 (AC840a),http://probebase.csb.univie.ac.at/pb_report/probe/1252
AcI-840-2 (AC840b),http://probebase.csb.univie.ac.at/pb_report/probe/1253
AcI-1214,http://probebase.csb.univie.ac.at/pb_report/probe/1254
DEN67,http://probebase.csb.univie.ac.at/pb_report/probe/1299
DEN124,http://probebase.csb.univie.ac.at/pb_report/probe/1300
DEN581,http://probebase.csb.univie.ac.at/pb_report/probe/1301
CteA,http://probebase.csb.univie.ac.at/pb_report/probe/1302
Nm143-446-1,http://probebase.csb.univie.ac.at/pb_report/probe/1303
Nm143-446-2,http://probebase.csb.univie.ac.at/pb_report/probe/1304
Nspmar62,http://probebase.csb.univie.ac.at/pb_report/probe/1305
Nmar831,http://probebase.csb.univie.ac.at/pb_report/probe/1306
DSS449,http://probebase.csb.univie.ac.at/pb_report/probe/1307
DSS138,http://probebase.csb.univie.ac.at/pb_report/probe/1308
DSR1256,http://probebase.csb.univie.ac.at/pb_report/probe/1309
Dblb1243,http://probebase.csb.univie.ac.at/pb_report/probe/1310
Dcap1031,http://probebase.csb.univie.ac.at/pb_report/probe/1311
Dblb1032,http://probebase.csb.univie.ac.at/pb_report/probe/1312
Dsr186,http://probebase.csb.univie.ac.at/pb_report/probe/1313
DSV185,http://probebase.csb.univie.ac.at/pb_report/probe/1314
DSV445,http://probebase.csb.univie.ac.at/pb_report/probe/1315
DSV64,http://probebase.csb.univie.ac.at/pb_report/probe/1316
OcraDEL1,http://probebase.csb.univie.ac.at/pb_report/probe/1317
OcraDEL2,http://probebase.csb.univie.ac.at/pb_report/probe/1318
OcraDEL3,http://probebase.csb.univie.ac.at/pb_report/probe/1319
DSBAC357,http://probebase.csb.univie.ac.at/pb_report/probe/1320
EPSY549,http://probebase.csb.univie.ac.at/pb_report/probe/1321
MB,http://probebase.csb.univie.ac.at/pb_report/probe/1324
PS5,http://probebase.csb.univie.ac.at/pb_report/probe/1325
E11,http://probebase.csb.univie.ac.at/pb_report/probe/1326
Nost993,http://probebase.csb.univie.ac.at/pb_report/probe/1327
PPx1002,http://probebase.csb.univie.ac.at/pb_report/probe/1328
EU25-1238,http://probebase.csb.univie.ac.at/pb_report/probe/1329
Cribseq,http://probebase.csb.univie.ac.at/pb_report/probe/1330
DSV827,http://probebase.csb.univie.ac.at/pb_report/probe/1332
DSBA1017,http://probebase.csb.univie.ac.at/pb_report/probe/1333
Pint649,http://probebase.csb.univie.ac.at/pb_report/probe/1343
Pnig657,http://probebase.csb.univie.ac.at/pb_report/probe/1344
Pden654,http://probebase.csb.univie.ac.at/pb_report/probe/1345
FUS664,http://probebase.csb.univie.ac.at/pb_report/probe/1346
SAR92_627,http://probebase.csb.univie.ac.at/pb_report/probe/1347
TBD1419,http://probebase.csb.univie.ac.at/pb_report/probe/1348
TBD121,http://probebase.csb.univie.ac.at/pb_report/probe/1349
TMD131,http://probebase.csb.univie.ac.at/pb_report/probe/1350
RHGA702,http://probebase.csb.univie.ac.at/pb_report/probe/1351
Tbm1282,http://probebase.csb.univie.ac.at/pb_report/probe/1352
Tbmthsacc184,http://probebase.csb.univie.ac.at/pb_report/probe/1353
Ccs432,http://probebase.csb.univie.ac.at/pb_report/probe/1354
TG1End1023T1,http://probebase.csb.univie.ac.at/pb_report/probe/1355
TG1-TriG1-Hsj,http://probebase.csb.univie.ac.at/pb_report/probe/1357
TG1-Joe-Kf,http://probebase.csb.univie.ac.at/pb_report/probe/1358
TG1-Dev-Nca,http://probebase.csb.univie.ac.at/pb_report/probe/1359
Flg-Dine-Hsj,http://probebase.csb.univie.ac.at/pb_report/probe/1360
Flg-Tricho1-Hsj,http://probebase.csb.univie.ac.at/pb_report/probe/1361
Flg-Joe-Kfl,http://probebase.csb.univie.ac.at/pb_report/probe/1363
ACIDO228,http://probebase.csb.univie.ac.at/pb_report/probe/1364
Bfu613,http://probebase.csb.univie.ac.at/pb_report/probe/1365
Oilv/OcraGAM1,http://probebase.csb.univie.ac.at/pb_report/probe/1366
Oalg/OilvGAM3,http://probebase.csb.univie.ac.at/pb_report/probe/1367
OilvDEL1,http://probebase.csb.univie.ac.at/pb_report/probe/1368
Oalg/OilvDEL3,http://probebase.csb.univie.ac.at/pb_report/probe/1369
OalgDEL4,http://probebase.csb.univie.ac.at/pb_report/probe/1370
SPIRO,http://probebase.csb.univie.ac.at/pb_report/probe/1371
tios_434,http://probebase.csb.univie.ac.at/pb_report/probe/1519
HHY-T5,http://probebase.csb.univie.ac.at/pb_report/probe/1520
HHY-654,http://probebase.csb.univie.ac.at/pb_report/probe/1521
hspec925,http://probebase.csb.univie.ac.at/pb_report/probe/1524
GNS934,http://probebase.csb.univie.ac.at/pb_report/probe/1529
POR1130,http://probebase.csb.univie.ac.at/pb_report/probe/1530
POR389,http://probebase.csb.univie.ac.at/pb_report/probe/1531
POR600,http://probebase.csb.univie.ac.at/pb_report/probe/1532
DSV119,http://probebase.csb.univie.ac.at/pb_report/probe/1533
DSV139,http://probebase.csb.univie.ac.at/pb_report/probe/1534
APC987,http://probebase.csb.univie.ac.at/pb_report/probe/1535
HLB1074,http://probebase.csb.univie.ac.at/pb_report/probe/1536
VAH1044,http://probebase.csb.univie.ac.at/pb_report/probe/1537
NAE1041,http://probebase.csb.univie.ac.at/pb_report/probe/1538
Ccat,http://probebase.csb.univie.ac.at/pb_report/probe/1539
Cint,http://probebase.csb.univie.ac.at/pb_report/probe/1540
Geo,http://probebase.csb.univie.ac.at/pb_report/probe/1541
Ylip,http://probebase.csb.univie.ac.at/pb_report/probe/1542
DF198,http://probebase.csb.univie.ac.at/pb_report/probe/1543
DF1004,http://probebase.csb.univie.ac.at/pb_report/probe/1544
DF1013,http://probebase.csb.univie.ac.at/pb_report/probe/1545
DF181A,http://probebase.csb.univie.ac.at/pb_report/probe/1546
DF181B,http://probebase.csb.univie.ac.at/pb_report/probe/1547
LS_HOL189,http://probebase.csb.univie.ac.at/pb_report/probe/1551
SS_HOL1400,http://probebase.csb.univie.ac.at/pb_report/probe/1552
LS_ALP544,http://probebase.csb.univie.ac.at/pb_report/probe/1553
LS_ALP761,http://probebase.csb.univie.ac.at/pb_report/probe/1554
SS_subd7_UB55–585,http://probebase.csb.univie.ac.at/pb_report/probe/1555
SS_subd7_UB55–632,http://probebase.csb.univie.ac.at/pb_report/probe/1556
LS_subd8_SGB1223,http://probebase.csb.univie.ac.at/pb_report/probe/1557
LS_subd8_SGB1420,http://probebase.csb.univie.ac.at/pb_report/probe/1558
LS_GFER2787,http://probebase.csb.univie.ac.at/pb_report/probe/1559
S-S-T.int-0442-a-A-18,http://probebase.csb.univie.ac.at/pb_report/probe/1561
S-S-T.plum-450-a-A-18,http://probebase.csb.univie.ac.at/pb_report/probe/1562
S-S-H.neap-635-a-A-19,http://probebase.csb.univie.ac.at/pb_report/probe/1563
RB454,http://probebase.csb.univie.ac.at/pb_report/probe/1564
PIR1223,http://probebase.csb.univie.ac.at/pb_report/probe/1565
YDC69,http://probebase.csb.univie.ac.at/pb_report/probe/1567
L2CG353,http://probebase.csb.univie.ac.at/pb_report/probe/1568
L2UBA353,http://probebase.csb.univie.ac.at/pb_report/probe/1569
BDE525,http://probebase.csb.univie.ac.at/pb_report/probe/1570
OilvGAM1,http://probebase.csb.univie.ac.at/pb_report/probe/2512
Oalg/OilvGAM3,http://probebase.csb.univie.ac.at/pb_report/probe/2513
OalgDEL1,http://probebase.csb.univie.ac.at/pb_report/probe/2514
OilvDEL1,http://probebase.csb.univie.ac.at/pb_report/probe/2515
Oalg/OilvDEL3,http://probebase.csb.univie.ac.at/pb_report/probe/2516
OalgDEL4,http://probebase.csb.univie.ac.at/pb_report/probe/2517
SPIRO,http://probebase.csb.univie.ac.at/pb_report/probe/2518
XenoGam441,http://probebase.csb.univie.ac.at/pb_report/probe/2523
XenoGam666,http://probebase.csb.univie.ac.at/pb_report/probe/2524
XenoGam727,http://probebase.csb.univie.ac.at/pb_report/probe/2525
SymLl1251,http://probebase.csb.univie.ac.at/pb_report/probe/2526
SymAf576,http://probebase.csb.univie.ac.at/pb_report/probe/2527
SymAf1272,http://probebase.csb.univie.ac.at/pb_report/probe/2528
Symco2,http://probebase.csb.univie.ac.at/pb_report/probe/2529
Rhodano 227,http://probebase.csb.univie.ac.at/pb_report/probe/2530
LEE82,http://probebase.csb.univie.ac.at/pb_report/probe/2531
DOK827,http://probebase.csb.univie.ac.at/pb_report/probe/2532
FL197,http://probebase.csb.univie.ac.at/pb_report/probe/2533
VIS6-814,http://probebase.csb.univie.ac.at/pb_report/probe/2534
VIS5-586,http://probebase.csb.univie.ac.at/pb_report/probe/2535
FL845,http://probebase.csb.univie.ac.at/pb_report/probe/2536
VIS3-183,http://probebase.csb.univie.ac.at/pb_report/probe/2537
VIS1-575,http://probebase.csb.univie.ac.at/pb_report/probe/2538
PSE227,http://probebase.csb.univie.ac.at/pb_report/probe/2539
PSE1284,http://probebase.csb.univie.ac.at/pb_report/probe/2540
TOL1028,http://probebase.csb.univie.ac.at/pb_report/probe/2541
TSP436,http://probebase.csb.univie.ac.at/pb_report/probe/2542
MPA1446,http://probebase.csb.univie.ac.at/pb_report/probe/2543
MST445,http://probebase.csb.univie.ac.at/pb_report/probe/2544
MSP1445,http://probebase.csb.univie.ac.at/pb_report/probe/2545
DEN220,http://probebase.csb.univie.ac.at/pb_report/probe/2546
DEN220a,http://probebase.csb.univie.ac.at/pb_report/probe/2547
DEN441,http://probebase.csb.univie.ac.at/pb_report/probe/2548
DEN444,http://probebase.csb.univie.ac.at/pb_report/probe/2549
DEN1454,http://probebase.csb.univie.ac.at/pb_report/probe/2550
FB648,http://probebase.csb.univie.ac.at/pb_report/probe/2551
FB741,http://probebase.csb.univie.ac.at/pb_report/probe/2552
FB842,http://probebase.csb.univie.ac.at/pb_report/probe/2553
Rotcl1,http://probebase.csb.univie.ac.at/pb_report/probe/2554
Rotcl2,http://probebase.csb.univie.ac.at/pb_report/probe/2555
WPF464,http://probebase.csb.univie.ac.at/pb_report/probe/2558
VSO673,http://probebase.csb.univie.ac.at/pb_report/probe/2559
DEN67,http://probebase.csb.univie.ac.at/pb_report/probe/2563
SAP553,http://probebase.csb.univie.ac.at/pb_report/probe/2565
Geo/Blasto,http://probebase.csb.univie.ac.at/pb_report/probe/2584
Modesto,http://probebase.csb.univie.ac.at/pb_report/probe/2585
UP23b,http://probebase.csb.univie.ac.at/pb_report/probe/2586
Curvi997,http://probebase.csb.univie.ac.at/pb_report/probe/2587
CYT1448,http://probebase.csb.univie.ac.at/pb_report/probe/2588
CYT1438,http://probebase.csb.univie.ac.at/pb_report/probe/2589
NOR5-730,http://probebase.csb.univie.ac.at/pb_report/probe/2590
NOR5-130,http://probebase.csb.univie.ac.at/pb_report/probe/2591
ROS537,http://probebase.csb.univie.ac.at/pb_report/probe/2592
KT13-231,http://probebase.csb.univie.ac.at/pb_report/probe/2593
KT09b,http://probebase.csb.univie.ac.at/pb_report/probe/2594
KT09c,http://probebase.csb.univie.ac.at/pb_report/probe/2595
RC1031,http://probebase.csb.univie.ac.at/pb_report/probe/2596
RC1239,http://probebase.csb.univie.ac.at/pb_report/probe/2597
Ros7-1029,http://probebase.csb.univie.ac.at/pb_report/probe/2598
Erythro69,http://probebase.csb.univie.ac.at/pb_report/probe/2599
Rhizo218,http://probebase.csb.univie.ac.at/pb_report/probe/2600
Lis-1255,http://probebase.csb.univie.ac.at/pb_report/probe/2605
Salm-63,http://probebase.csb.univie.ac.at/pb_report/probe/2606
BEG811,http://probebase.csb.univie.ac.at/pb_report/probe/2607
18Alf-0218,http://probebase.csb.univie.ac.at/pb_report/probe/2616
18Alf-1437,http://probebase.csb.univie.ac.at/pb_report/probe/2617
SEEP1a-473,http://probebase.csb.univie.ac.at/pb_report/probe/2620
SEEP1a-1441,http://probebase.csb.univie.ac.at/pb_report/probe/2621
SEEP1f-153,http://probebase.csb.univie.ac.at/pb_report/probe/2623
Pedo_1250,http://probebase.csb.univie.ac.at/pb_report/probe/2624
Cboid198,http://probebase.csb.univie.ac.at/pb_report/probe/2628
S-*-CFB-0655-a-A-18,http://probebase.csb.univie.ac.at/pb_report/probe/2629
S-*-CFB-0730-a-A-18,http://probebase.csb.univie.ac.at/pb_report/probe/2630
S-*-GNS-0667-a-A-18,http://probebase.csb.univie.ac.at/pb_report/probe/2631
S-*-Opitu-0744-a-A-18,http://probebase.csb.univie.ac.at/pb_report/probe/2632
ANA103,http://probebase.csb.univie.ac.at/pb_report/probe/2633
FUS664,http://probebase.csb.univie.ac.at/pb_report/probe/2634
MIT588,http://probebase.csb.univie.ac.at/pb_report/probe/2635
ODB1021,http://probebase.csb.univie.ac.at/pb_report/probe/2636
RSHP995,http://probebase.csb.univie.ac.at/pb_report/probe/2637
GPU622,http://probebase.csb.univie.ac.at/pb_report/probe/2638
GVstr214,http://probebase.csb.univie.ac.at/pb_report/probe/2639
SF825,http://probebase.csb.univie.ac.at/pb_report/probe/2640
PSYB476,http://probebase.csb.univie.ac.at/pb_report/probe/2641
MB-IC022,http://probebase.csb.univie.ac.at/pb_report/probe/2642
PB223,http://probebase.csb.univie.ac.at/pb_report/probe/2643
GAN850,http://probebase.csb.univie.ac.at/pb_report/probe/2644
VP403,http://probebase.csb.univie.ac.at/pb_report/probe/2645
SPA714,http://probebase.csb.univie.ac.at/pb_report/probe/2646
SPA649,http://probebase.csb.univie.ac.at/pb_report/probe/2647
OPT1169,http://probebase.csb.univie.ac.at/pb_report/probe/2648
Blsv1030,http://probebase.csb.univie.ac.at/pb_report/probe/2649
Rbla1372,http://probebase.csb.univie.ac.at/pb_report/probe/2650
Rbmr151,http://probebase.csb.univie.ac.at/pb_report/probe/2651
Rvsl139,http://probebase.csb.univie.ac.at/pb_report/probe/2652
Cboid198,http://probebase.csb.univie.ac.at/pb_report/probe/2653
KIN516,http://probebase.csb.univie.ac.at/pb_report/probe/2655
CFX197,http://probebase.csb.univie.ac.at/pb_report/probe/2656
CFX223,http://probebase.csb.univie.ac.at/pb_report/probe/2657
CFX67a,http://probebase.csb.univie.ac.at/pb_report/probe/2658
CFX67b,http://probebase.csb.univie.ac.at/pb_report/probe/2659
ERY174,http://probebase.csb.univie.ac.at/pb_report/probe/2663
PARA739,http://probebase.csb.univie.ac.at/pb_report/probe/2664
RHIZ1244,http://probebase.csb.univie.ac.at/pb_report/probe/2665
Lepto175,http://probebase.csb.univie.ac.at/pb_report/probe/2666
Dbact653,http://probebase.csb.univie.ac.at/pb_report/probe/2669
DSU655,http://probebase.csb.univie.ac.at/pb_report/probe/2670
ATAM01,http://probebase.csb.univie.ac.at/pb_report/probe/2671
ATNA02,http://probebase.csb.univie.ac.at/pb_report/probe/2672
ATWE03,http://probebase.csb.univie.ac.at/pb_report/probe/2673
ATME04,http://probebase.csb.univie.ac.at/pb_report/probe/2674
DINO01,http://probebase.csb.univie.ac.at/pb_report/probe/2675
AOST01,http://probebase.csb.univie.ac.at/pb_report/probe/2676
AOST02,http://probebase.csb.univie.ac.at/pb_report/probe/2677
Bfi826,http://probebase.csb.univie.ac.at/pb_report/probe/2678
Rum831,http://probebase.csb.univie.ac.at/pb_report/probe/2679
Lac435,http://probebase.csb.univie.ac.at/pb_report/probe/2680
Ral1436,http://probebase.csb.univie.ac.at/pb_report/probe/2681
Rfl155,http://probebase.csb.univie.ac.at/pb_report/probe/2682
Bac1080,http://probebase.csb.univie.ac.at/pb_report/probe/2683
fir5-575,http://probebase.csb.univie.ac.at/pb_report/probe/2684
But1243,http://probebase.csb.univie.ac.at/pb_report/probe/2685
Clo549,http://probebase.csb.univie.ac.at/pb_report/probe/2686
Inc852,http://probebase.csb.univie.ac.at/pb_report/probe/2687
Pse1257,http://probebase.csb.univie.ac.at/pb_report/probe/2688
Ace731,http://probebase.csb.univie.ac.at/pb_report/probe/2689
Vei732,http://probebase.csb.univie.ac.at/pb_report/probe/2690
Pseudo120,http://probebase.csb.univie.ac.at/pb_report/probe/3692
SUB 196,http://probebase.csb.univie.ac.at/pb_report/probe/3693
APYO 183,http://probebase.csb.univie.ac.at/pb_report/probe/3694
Syner195,http://probebase.csb.univie.ac.at/pb_report/probe/3696
Lmon,http://probebase.csb.univie.ac.at/pb_report/probe/3697
CLOSs146,http://probebase.csb.univie.ac.at/pb_report/probe/3698
CLOSs654,http://probebase.csb.univie.ac.at/pb_report/probe/3699
RUMs278,http://probebase.csb.univie.ac.at/pb_report/probe/3700
FIMs1029,http://probebase.csb.univie.ac.at/pb_report/probe/3701
Cboid198,http://probebase.csb.univie.ac.at/pb_report/probe/3702
CJ2,http://probebase.csb.univie.ac.at/pb_report/probe/3703
NebProb203,http://probebase.csb.univie.ac.at/pb_report/probe/3879
FNFProb759,http://probebase.csb.univie.ac.at/pb_report/probe/3880
Ng02,http://probebase.csb.univie.ac.at/pb_report/probe/3882
Dd04,http://probebase.csb.univie.ac.at/pb_report/probe/3883
AQI338,http://probebase.csb.univie.ac.at/pb_report/probe/3884
SFH646,http://probebase.csb.univie.ac.at/pb_report/probe/3885
Deflu_197,http://probebase.csb.univie.ac.at/pb_report/probe/3886
CyrIn_142,http://probebase.csb.univie.ac.at/pb_report/probe/3887
Faecali698,http://probebase.csb.univie.ac.at/pb_report/probe/3888
Clep866,http://probebase.csb.univie.ac.at/pb_report/probe/3889
Rcal733,http://probebase.csb.univie.ac.at/pb_report/probe/3890
Cvir1414,http://probebase.csb.univie.ac.at/pb_report/probe/3891
Edes635,http://probebase.csb.univie.ac.at/pb_report/probe/3892
Bfrag 998,http://probebase.csb.univie.ac.at/pb_report/probe/3893
Bvulg 1017,http://probebase.csb.univie.ac.at/pb_report/probe/3894
Fprau0645,http://probebase.csb.univie.ac.at/pb_report/probe/3895
Mcs487,http://probebase.csb.univie.ac.at/pb_report/probe/3896
Mcs547,http://probebase.csb.univie.ac.at/pb_report/probe/3897
MUC-1437,http://probebase.csb.univie.ac.at/pb_report/probe/3898
Bacid1,http://probebase.csb.univie.ac.at/pb_report/probe/3899
Bacid3,http://probebase.csb.univie.ac.at/pb_report/probe/3901
Bot,http://probebase.csb.univie.ac.at/pb_report/probe/3902
Bova,http://probebase.csb.univie.ac.at/pb_report/probe/3903
Bthe,http://probebase.csb.univie.ac.at/pb_report/probe/3904
Buni,http://probebase.csb.univie.ac.at/pb_report/probe/3905
Bcac,http://probebase.csb.univie.ac.at/pb_report/probe/3906
P(T)AFO,http://probebase.csb.univie.ac.at/pb_report/probe/3907
POGI,http://probebase.csb.univie.ac.at/pb_report/probe/3908
PRIN,http://probebase.csb.univie.ac.at/pb_report/probe/3909
Bovat 1028,http://probebase.csb.univie.ac.at/pb_report/probe/3910
Bdist 1025,http://probebase.csb.univie.ac.at/pb_report/probe/3911
Bputre 698,http://probebase.csb.univie.ac.at/pb_report/probe/3912
Efs,http://probebase.csb.univie.ac.at/pb_report/probe/3913
LPLANG,http://probebase.csb.univie.ac.at/pb_report/probe/3914
LSAL,http://probebase.csb.univie.ac.at/pb_report/probe/3915
Lba,http://probebase.csb.univie.ac.at/pb_report/probe/3916
Lbg,http://probebase.csb.univie.ac.at/pb_report/probe/3917
Lbj,http://probebase.csb.univie.ac.at/pb_report/probe/3918
LSPotu9468-999,http://probebase.csb.univie.ac.at/pb_report/probe/3919
LSPotu9468-1259,http://probebase.csb.univie.ac.at/pb_report/probe/3920
Chis150,http://probebase.csb.univie.ac.at/pb_report/probe/3925
LSPotu11021-1448,http://probebase.csb.univie.ac.at/pb_report/probe/3926
Law1,http://probebase.csb.univie.ac.at/pb_report/probe/3927
Lab158,http://probebase.csb.univie.ac.at/pb_report/probe/3928
Rrec584,http://probebase.csb.univie.ac.at/pb_report/probe/3929
Prop853,http://probebase.csb.univie.ac.at/pb_report/probe/3930
Bx183,http://probebase.csb.univie.ac.at/pb_report/probe/3931
Aalborgi183,http://probebase.csb.univie.ac.at/pb_report/probe/3932
Erec834,http://probebase.csb.univie.ac.at/pb_report/probe/3933
Erec838,http://probebase.csb.univie.ac.at/pb_report/probe/3934
Etor727,http://probebase.csb.univie.ac.at/pb_report/probe/3935
Etor129,http://probebase.csb.univie.ac.at/pb_report/probe/3936
Lbd,http://probebase.csb.univie.ac.at/pb_report/probe/3937
EC 1531,http://probebase.csb.univie.ac.at/pb_report/probe/3938
Sym_Stau_303,http://probebase.csb.univie.ac.at/pb_report/probe/3957
Ntlc439,http://probebase.csb.univie.ac.at/pb_report/probe/3958
Bif228,http://probebase.csb.univie.ac.at/pb_report/probe/3959
Ntlc804,http://probebase.csb.univie.ac.at/pb_report/probe/3960
Alsym16S,http://probebase.csb.univie.ac.at/pb_report/probe/3961
MCP52,http://probebase.csb.univie.ac.at/pb_report/probe/3962
CPla-1,http://probebase.csb.univie.ac.at/pb_report/probe/3963
CPla-2,http://probebase.csb.univie.ac.at/pb_report/probe/3964
CPla-3,http://probebase.csb.univie.ac.at/pb_report/probe/3965
LytiProb_433,http://probebase.csb.univie.ac.at/pb_report/probe/3966
Lflag_268,http://probebase.csb.univie.ac.at/pb_report/probe/3967
Lsinu_268,http://probebase.csb.univie.ac.at/pb_report/probe/3968
Pse136,http://probebase.csb.univie.ac.at/pb_report/probe/3973
Pse136b,http://probebase.csb.univie.ac.at/pb_report/probe/3974
Pse910,http://probebase.csb.univie.ac.at/pb_report/probe/3975
Hal180,http://probebase.csb.univie.ac.at/pb_report/probe/3976
Elo1-1250,http://probebase.csb.univie.ac.at/pb_report/probe/3977
Tet1-823,http://probebase.csb.univie.ac.at/pb_report/probe/3978
Tet1-266,http://probebase.csb.univie.ac.at/pb_report/probe/3979
Tet2-842,http://probebase.csb.univie.ac.at/pb_report/probe/3980
Tet2-831,http://probebase.csb.univie.ac.at/pb_report/probe/3981
Tet2-892,http://probebase.csb.univie.ac.at/pb_report/probe/3982
Tet2-87,http://probebase.csb.univie.ac.at/pb_report/probe/3983
Tet2-174,http://probebase.csb.univie.ac.at/pb_report/probe/3984
Tet3-654,http://probebase.csb.univie.ac.at/pb_report/probe/3985
Tet3-19,http://probebase.csb.univie.ac.at/pb_report/probe/3986
Str56,http://probebase.csb.univie.ac.at/pb_report/probe/3987
Lac93,http://probebase.csb.univie.ac.at/pb_report/probe/3988
Pro60,http://probebase.csb.univie.ac.at/pb_report/probe/3989
LasA3720_1281,http://probebase.csb.univie.ac.at/pb_report/probe/3990
LasB3720_1281,http://probebase.csb.univie.ac.at/pb_report/probe/3991
Bac16065_472,http://probebase.csb.univie.ac.at/pb_report/probe/3992
Bac3732_846,http://probebase.csb.univie.ac.at/pb_report/probe/3993
Bac11839_649,http://probebase.csb.univie.ac.at/pb_report/probe/3994
Bac15326_476,http://probebase.csb.univie.ac.at/pb_report/probe/3995
Bac13481_437,http://probebase.csb.univie.ac.at/pb_report/probe/3996
All3256_484,http://probebase.csb.univie.ac.at/pb_report/probe/3997
Baci731A_87,http://probebase.csb.univie.ac.at/pb_report/probe/3998
Baci731B_87,http://probebase.csb.univie.ac.at/pb_report/probe/3999
Rum14644A_184,http://probebase.csb.univie.ac.at/pb_report/probe/4000
Rum14644B_64,http://probebase.csb.univie.ac.at/pb_report/probe/4001
Rum17903_443,http://probebase.csb.univie.ac.at/pb_report/probe/4002
LasA5944_580,http://probebase.csb.univie.ac.at/pb_report/probe/4003
LasB5944_580,http://probebase.csb.univie.ac.at/pb_report/probe/4004
Lab9057_570,http://probebase.csb.univie.ac.at/pb_report/probe/4005
Lab2185_87,http://probebase.csb.univie.ac.at/pb_report/probe/4006
UCB-823,http://probebase.csb.univie.ac.at/pb_report/probe/4007
ULB-450,http://probebase.csb.univie.ac.at/pb_report/probe/4008
UCB-127,http://probebase.csb.univie.ac.at/pb_report/probe/4009
L.mars_symb1,http://probebase.csb.univie.ac.at/pb_report/probe/4010
L.mars_symb2,http://probebase.csb.univie.ac.at/pb_report/probe/4011
volv-835,http://probebase.csb.univie.ac.at/pb_report/probe/4012
PDD8_644,http://probebase.csb.univie.ac.at/pb_report/probe/4042
